   Min. 1st Qu.  Median    Mean 3rd Qu.    Max. 
  0.000   3.669   4.907  11.851   6.947  76.040 
[1] ""
# A tibble: 3,088 x 7
     No.     Time Source    Destination  Protocol Length Info                           
   <dbl>    <dbl> <chr>     <chr>        <chr>     <dbl> <chr>                          
 1     1  0.      3.218.46… 10.0.2.15    TLSv1.2     105 Change Cipher Spec, Encrypted …
 2     2  2.65e-5 10.0.2.15 3.218.46.181 TCP          54 57020  >  443 [ACK] Seq=1 Ack=…
 3     3  1.16e-2 10.0.2.15 104.117.189… TCP          74 41158  >  443 [SYN] Seq=0 Win=…
 4     4  1.54e-2 104.117.… 10.0.2.15    TCP          60 443  >  41158 [SYN, ACK] Seq=0…
 5     5  1.54e-2 10.0.2.15 104.117.189… TCP          54 41158  >  443 [ACK] Seq=1 Ack=…
 6     6  1.83e-2 10.0.2.15 104.117.189… TLSv1.3     571 Client Hello                   
 7     7  1.87e-2 104.117.… 10.0.2.15    TCP          60 443  >  41158 [ACK] Seq=1 Ack=…
 8     8  2.37e-2 104.117.… 10.0.2.15    TLSv1.3    2894 Server Hello, Change Cipher Sp…
 9     9  2.37e-2 10.0.2.15 104.117.189… TCP          54 41158  >  443 [ACK] Seq=518 Ac…
10    10  2.38e-2 104.117.… 10.0.2.15    TLSv1.3    1310 Application Data, Application …
# … with 3,078 more rows
